#FIG 3.2  Produced by xfig version 3.2.5c
Landscape
Center
Metric
A4      
100.00
Single
-2
1200 2
2 1 0 1 0 7 50 -1 -1 0.000 0 0 -1 1 0 2
	0 0 1.00 60.00 120.00
	 900 9900 11250 9900
2 1 0 1 0 7 50 -1 -1 0.000 0 0 -1 1 0 2
	0 0 1.00 60.00 120.00
	 900 9900 900 3150
2 1 0 1 0 7 50 -1 -1 0.000 0 0 -1 0 0 5
	 1800 9000 1800 3600 9000 3600 9000 9000 1800 9000
2 1 0 1 0 7 50 -1 -1 0.000 0 0 -1 0 0 2
	 3600 9000 3600 3600
2 1 0 1 0 7 50 -1 -1 0.000 0 0 -1 0 0 2
	 5400 3600 5400 9000
2 1 0 1 0 7 50 -1 -1 0.000 0 0 -1 0 0 2
	 7200 3600 7200 9000
2 1 0 1 0 7 50 -1 -1 0.000 0 0 -1 0 0 2
	 1800 7200 9000 7200
2 1 0 1 0 7 50 -1 -1 0.000 0 0 -1 0 0 2
	 1800 5400 9000 5400
2 1 0 1 0 7 50 -1 -1 0.000 0 0 -1 0 0 2
	 1800 9720 1800 10170
2 1 0 1 0 7 50 -1 -1 0.000 0 0 -1 0 0 2
	 720 9000 1080 9000
4 0 0 50 -1 0 18 0.0000 4 255 2025 1350 10800 p_lowValue(0)=1\001
4 0 0 50 -1 0 18 0.0000 4 255 2025 180 8730 p_lowValue(1)=1\001
4 0 0 50 -1 0 18 0.0000 4 255 1710 8730 9540 p_nbStep(0)=4\001
4 0 0 50 -1 0 18 0.0000 4 255 1365 3960 9540 p_step(0)=2\001
4 0 0 50 -1 0 18 0.0000 4 255 1365 1350 6390 p_step(1)=2\001
4 0 0 50 -1 0 18 0.0000 4 255 1710 1170 4500 p_nbStep(1)=3\001
